^D:\TÀI LIỆU\NĂM 3\LẬP TRÌNH WINDOWS\1512424.LAB03\1512424.LAB03\RELEASE\1512424LAB03.OBJ|D:\TÀI LIỆU\NĂM 3\LẬP TRÌNH WINDOWS\1512424.LAB03\1512424.LAB03\RELEASE\1512424LAB03.RES|D:\TÀI LIỆU\NĂM 3\LẬP TRÌNH WINDOWS\1512424.LAB03\1512424.LAB03\RELEASE\STDAFX.OBJ
D:\TàI LIệU\NăM 3\LậP TRìNH WINDOWS\1512424.LAB03\RELEASE\1512424.LAB03.EXE
D:\TÀI LIỆU\NĂM 3\LẬP TRÌNH WINDOWS\1512424.LAB03\RELEASE\1512424.LAB03.PDB
